…
<br>
<center><img src="/images/k_means_image/unnamed-chunk-7-1.png?style=centerme"></center>
<br>

```R
iris$species_cluster <- iris_cluster$cluster
```


```R
tbl_df(iris)
```

{% highlight text %}
    ## # A tibble: 150 x 6
    ##    Sepal.Length Sepal.Width Petal.Length Petal.Width Species
    ##           <dbl>       <dbl>        <dbl>       <dbl>  <fctr>
    ##  1          5.1         3.5          1.4         0.2  setosa
    ##  2          4.9         3.0          1.4         0.2  setosa
    ##  3          4.7         3.2          1.3         0.2  setosa
    ##  4          4.6         3.1          1.5         0.2  setosa
    ##  5          5.0         3.6          1.4         0.2  setosa
    ##  6          5.4         3.9          1.7         0.4  setosa
    ##  7          4.6         3.4          1.4         0.3  setosa
    ##  8          5.0         3.4          1.5         0.2  setosa
    ##  9          4.4         2.9          1.4         0.2  setosa
    ## 10          4.9         3.1          1.5         0.1  setosa
    ## # ... with 140 more rows, and 1 more variables: species_cluster <fctr>
…
